=== SOURCE CODE (py) ===
'''
# PageUtil class is a versatile utility for handling pagination and search functionalities in an efficient and convenient manner.

class PageUtil:
    def __init__(self, data, page_size):
        """
        Initialize the PageUtil object with the given data and page size.
        :param data: list, the data to be paginated
        :param page_size: int, the number of items per page
        """
        self.data = data
        self.page_size = page_size
        self.total_items = len(data)
        self.total_pages = (self.total_items + page_size - 1) // page_size

    def get_page(self, page_number):
        """
        Retrieve a specific page of data.
        :param page_number: int, the page number to fetch
        :return: list, the data on the specified page
        >>> page_util = PageUtil([1, 2, 3, 4], 1)
        >>> page_util.get_page(1)
        [1]

        """


    def get_page_info(self, page_number):
        """
        Retrieve information about a specific page.
        :param page_number: int, the page number to fetch information about
        :return: dict, containing page information such as current page number, total pages, etc.
        >>> page_util = PageUtil([1, 2, 3, 4], 1)
        >>> page_util.get_page_info(1)
        >>> {
        >>>     "current_page": 1,
        >>>     "per_page": 1,
        >>>     "total_pages": 4,
        >>>     "total_items": 4,
        >>>     "has_previous": False,
        >>>     "has_next": True,
        >>>     "data": [1]
        >>> }

        """


    def search(self, keyword):
        """
        Search for items in the data that contain the given keyword.
        :param keyword: str, the keyword to search for
        :return: dict, containing search information such as total results and matching items
        >>> page_util = PageUtil([1, 2, 3, 4], 1)
        >>> page_util.search("1")
        >>> search_info = {
        >>>     "keyword": "1",
        >>>     "total_results": 1,
        >>>     "total_pages": 1,
        >>>     "results": [1]
        >>> }
        """


'''


class PageUtil:
    def __init__(self, data, page_size):
        self.data = data
        self.page_size = page_size
        self.total_items = len(data)
        self.total_pages = (self.total_items + page_size - 1) // page_size

    def get_page(self, page_number):
        if page_number < 1 or page_number > self.total_pages:
            return []

        start_index = (page_number - 1) * self.page_size
        end_index = start_index + self.page_size
        return self.data[start_index:end_index]

    def get_page_info(self, page_number):
        if page_number < 1 or page_number > self.total_pages:
            return {}

        start_index = (page_number - 1) * self.page_size
        end_index = min(start_index + self.page_size, self.total_items)
        page_data = self.data[start_index:end_index]

        page_info = {
            "current_page": page_number,
            "per_page": self.page_size,
            "total_pages": self.total_pages,
            "total_items": self.total_items,
            "has_previous": page_number > 1,
            "has_next": page_number < self.total_pages,
            "data": page_data
        }
        return page_info

    def search(self, keyword):
        results = [item for item in self.data if keyword in str(item)]
        num_results = len(results)
        num_pages = (num_results + self.page_size - 1) // self.page_size

        search_info = {
            "keyword": keyword,
            "total_results": num_results,
            "total_pages": num_pages,
            "results": results
        }
        return search_info




=== REASONING ===
<think>

We are translating the provided Python code for the PageUtil class to C++.
 The class has three main methods: __init__, get_page, get_page_info, and search.
 We must maintain the same behavior, including edge cases and exceptions.

 Steps:
 1. We'll create a C++ class `PageUtil` with the same functionality.
 2. We'll use a vector to hold the data (since the Python list is similar).
 3. The page_size is an integer, and we'll store the total items and total pages accordingly.
 4. We must handle negative page numbers and invalid pages by returning empty lists or empty dictionaries.
 5. We must handle the search function appropriately.

 Important: The behavior must be identical, so we must consider:
   - The calculation of total_pages: using ceiling division (same as Python: (total_items + page_size - 1) // page_size)
   - The get_page method returns an empty list for invalid pages.
   - The get_page_info method returns an empty dictionary for invalid pages, and otherwise a dictionary with the specified keys.
   - The search method returns a dictionary with the specified keys.

 Let's break down each method:

 __init__:
   - Takes a vector of items and a page_size (integer).
   - Initializes total_items (as the size of the vector) and total_pages.

 get_page:
   - If the page_number is out of bounds (less than 1 or greater than total_pages), return an empty vector.
   - Otherwise, calculate the start and end indices and return the slice.

 get_page_info:
   - If the page_number is invalid, return an empty map.
   - Otherwise, calculate the start index and the end index (min(start_index+page_size, total_items)).
   - Then, build a map with the required keys.

 search:
   - We are to search for items that contain the keyword (converted to string) in their string representation.
   - We return a map containing:
        "keyword": the keyword,
        "total_results": number of results,
        "total_pages": calculated by (num_results + page_size - 1) // page_size,
        "results": the list of results.

 Note: In C++, we cannot use slicing directly on a vector, so we will use iterators or array indexing.

 We'll use:
   - std::vector for the data.
   - For the search, we'll convert each item to a string and check if the keyword is contained.

 Let's write the C++ code accordingly.

 However, note that the original Python code does not specify the type of the items in the data.
 We'll assume the data can be of any type that can be converted to a string (like integers, strings, etc.) and the keyword is a string.

 We'll use templates to allow any type for the data, but note that the search function requires converting the item to a string.
 Alternatively, we can make the class a template and the search function will work for any type that can be converted to string.

 But note: the problem says to keep behavior identical and use idiomatic C++ only when it doesn't change behavior.

 Since the original Python code does not specify the type, we can make the class a template. However, the problem does not specify if the data is of a specific type.

 Let's consider two options:
   Option 1: Use a non-template class that only works for types that can be converted to string (like by using a stringstream for any type?).
   Option 2: Use a template so that the user can specify the type.

 But note: the problem says to keep behavior identical. The original Python code uses a list of arbitrary items and searches by converting to string.

 Since the requirement is to keep behavior identical and the original code is for a general list, we can do:

   - If we want to be generic, we can use a template and then in the search function, we use a stringstream to convert any type to string.

 However, the problem does not specify the type, so we can also design without a template and just use a vector of a base class that can be printed? 
 But that would be more complex.

 Alternatively, we can assume the data is of type `std::string`? But the example uses integers.

 Let's re-read the example: 
   Example: data = [1, 2, 3, 4] and keyword "1"

 So, the search function is converting the item to a string and checking if the keyword is in that string.

 We can do the same in C++ by using a stringstream or by using a templated function.

 Since the problem says to keep behavior identical, we can do:

   template <typename T>
   class PageUtil {
   private:
        std::vector<T> data;
        int page_size;
        long total_items;   // Use long to avoid overflow if needed
        long total_pages;

   public:
        PageUtil(const std::vector<T>& data, int page_size) : data(data), page_size(page_size) {
            total_items = data.size();
            total_pages = (total_items + page_size - 1) / page_size;
        }

        // ... and so on.

   Then, in the search function, we can use a stringstream to convert T to string.

 However, note: the original Python code uses `len(data)` and `page_size` is an integer. We are using integers for page_size and total_pages, but the total_items is a long.

 But the original code uses integer arithmetic. We can use int for everything if the data size is not too large, but let's use long for total_items and total_pages to avoid overflow.

 Alternatively, we can use size_t for total_items and total_pages, but note that the total_pages is calculated by ceiling division and then compared with page numbers.

 Since the problem does not specify the range, we'll use long for total_items and total_pages.

 But note: the page_number is an integer (int). We can use int for page_number and the calculations.

 However, the total_items might be large, so we use long for total_items and total_pages.

 Let's define:

   - data: std::vector<T>
   - page_size: int (as in the original)
   - total_items: long (to avoid overflow in the division)
   - total_pages: long (same)

 Now, the get_page and get_page_info methods:

   get_page:
        if page_number < 1 || page_number > total_pages, return empty vector.
        start_index = (page_number - 1) * page_size
        end_index = start_index + page_size
        return the vector from start_index to end_index.

   get_page_info:
        similar, but returns a map (we can use std::map or std::unordered_map? The original uses a dict with specific keys. We'll use std::map for ordered key-value pairs, but the original doesn't specify order.

   However, note: the original returns a dictionary with specific keys. We can use a std::map or we can use a struct. But the problem says to keep behavior identical, and the return type in Python is a dict.

   We can return a std::map<std::string, ...> for the get_page_info and search methods.

   But note: the keys are strings and the values are of different types.

   We can do:

        std::map<std::string, int> for integer values
        std::map<std::string, bool> for booleans
        std::map<std::string, long> for long
        std::map<std::string, std::vector<T>> for the data

   However, this requires knowing the type of T for the vector. Alternatively, we can use a variant or a JSON-like structure, but that complicates.

   Alternatively, we can return a std::map<std::string, std::string> and convert the numbers to strings? But that would change the behavior.

   The original returns a dictionary with mixed types. In C++, we can use a std::map with a variant for the values, but that is C++17 and requires complex code.

   Alternatively, we can use a struct for the return types of get_page_info and search.

   Let's consider:

   For get_page_info, we can define a struct:

        struct PageInfo {
            int current_page;
            int per_page;
            long total_pages;
            long total_items;
            bool has_previous;
            bool has_next;
            std::vector<T> data;
        };

   Then, the method returns a PageInfo.

   Similarly, for search, we can define:

        struct SearchInfo {
            std::string keyword;
            long total_results;
            long total_pages;
            std::vector<T> results;
        };

   But note: the original search returns a dictionary with the keyword as a string and the other fields. We can do the same with a struct.

   However, the problem says to keep behavior identical. The return type in the original is a dictionary. We are changing to a struct. But note: the problem says "use idiomatic C++ only when it doesn't change behavior".

   Since the behavior is the same (the data and the fields) and the return type is a struct that holds the same information, this is acceptable.

   Alternatively, we can return a std::map for both, but that would require knowing the types at compile time and we cannot have a map with mixed types without using a variant or a map of strings to JSON.

   Let's stick with structs for better type safety and clarity.

   We can change the method signatures to:

        PageInfo get_page_info(int page_number) const;

        SearchInfo search(const std::string& keyword) const;

   But note: the original __init__ takes a list and an integer. In C++, we can take a vector and an integer.

   However, the original code does not specify the type of the data, so we are using a template.

   Let's write the template class.

   Steps:

   1. Define the template class PageUtil.
   2. Define the PageInfo and SearchInfo structs inside the class or outside? We can define them inside the class as nested structs, but then the methods can use them.

   Alternatively, we can define them inside the class.

   Let's do:

        template <typename T>
        class PageUtil {
        private:
            struct PageInfo {
                int current_page;
                int per_page;
                long total_pages;
                long total_items;
                bool has_previous;
                bool has_next;
                std::vector<T> data;
            };

            struct SearchInfo {
                std::string keyword;
                long total_results;
                long total_pages;
                std::vector<T> results;
            };

        private:
            std::vector<T> data;
            int page_size;
            long total_items;
            long total_pages;

        public:
            PageUtil(const std::vector<T>& data, int page_size) : data(data), page_size(page_size) {
                total_items = data.size();
                total_pages = (total_items + page_size - 1) / page_size;
            }

            std::vector<T> get_page(int page_number) {
                if (page_number < 1 || page_number > total_pages) {
                    return std::vector<T>();
                }
                int start_index = (page_number - 1) * page_size;
                int end_index = start_index + page_size;
                // We cannot use slicing, so we use iterators
                std::vector<T> result(data.begin() + start_index, data.begin() + end_index);
                return result;
            }

            PageInfo get_page_info(int page_number) {
                if (page_number < 1 || page_number > total_pages) {
                    return PageInfo{0, 0, 0, 0, false, false, {}};
                }
                int start_index = (page_number - 1) * page_size;
                int end_index = start_index + page_size;
                if (end_index > total_items) {
                    end_index = total_items;
                }
                std::vector<T> page_data(data.begin() + start_index, data.begin() + end_index);

                PageInfo info;
                info.current_page = page_number;
                info.per_page = page_size;
                info.total_pages = total_pages;
                info.total_items = total_items;
                info.has_previous = (page_number > 1);
                info.has_next = (page_number < total_pages);
                info.data = page_data;

                return info;
            }

            SearchInfo search(const std::string& keyword) {
                std::vector<T> results;
                for (const T& item : data) {
                    // Convert T to string. We need to handle any type T that can be converted to string.
                    // We'll use a stringstream for that.
                    std::stringstream ss;
                    ss << item;
                    if (ss.str().find(keyword) != std::string::npos) {
                        results.push_back(item);
                    }
                }
                long num_results = results.size();
                long num_pages = (num_results + page_size - 1) / page_size;

                SearchInfo info;
                info.keyword = keyword;
                info.total_results = num_results;
                info.total_pages = num_pages;
                info.results = results;

                return info;
            }
        };

   However, note: the original search method uses `keyword in str(item)`. We are doing the same by converting the item to a string and checking if the keyword is found.

   But note: the original uses `str(item)` and then `keyword in str(item)`. In C++, we are using stringstream to convert T to string. This works for any type that supports operator<<.

   This is acceptable.

   But wait: the original code does not specify the type of the data, so we are assuming that T can be converted to string. This is a requirement.

   We can also use a template specialization or a trait to convert to string, but that would be more complex.

   Alternatively, we can require the user to pass a vector of strings? But the example uses integers.

   Since the problem says to keep behavior identical, we must allow any type that can be converted to string.

   This is acceptable.

   However, note: the original code does not specify the type of the keyword, but in the example it's a string. We are using std::string for the keyword.

   Now, let's consider the boundaries:

        In the get_page and get_page_info methods, we are using int for page_number and page_size. We assume the page_size is positive.

        The original code does not check for negative page_size, but the example uses positive. We can add a check for positive page_size in the constructor.

        But the problem says to keep behavior identical. The original does not check for negative page_size, so we don't have to. However, if page_size is 0 or negative, the total_pages calculation might be wrong.

        We can leave it as is, or we can add a check. Since the problem does not specify, we'll leave it without check.

   Let's write the code accordingly.

   We'll include the necessary headers.

   Note: We are using std::vector, std::string, std::stringstream, and std::map (if we use map) but we are using structs now.

   We don't need to include <map> for the structs.

   We'll include:
        <vector>
        <string>
        <sstream>
        <iostream> (not needed, but if we want to debug)

   We are only using <vector>, <string>, and <sstream>.

   Now, let's write the complete C++ code.

   One more thing: the original code has an example of how to use the class. We are not required to write that.

   We'll write the class as described.

   Let's code accordingly.

</think>

=== RAW ANSWER ===

To solve this problem, we need to translate a Python class `PageUtil` into C++ while maintaining the same behavior, inputs, outputs, side effects, and edge cases. The class handles pagination and search functionalities efficiently.

### Approach
1. **Class Template**: Use a template to allow the `PageUtil` class to work with any data type.
2. **Member Variables**: Store the data, page size, total items, and total pages as private member variables.
3. **Initialization**: Calculate the total pages using ceiling division in the constructor.
4. **Pagination Methods**:
   - `get_page`: Retrieve a specific page of data. Return an empty vector for invalid page numbers.
   - `get_page_info`: Return detailed information about a specific page, including navigation flags and data. Return an empty struct for invalid pages.
5. **Search Method**: Filter data based on a keyword and return search results with pagination details.

### Solution Code
```cpp
#include <vector>
#include <string>
#include <sstream>
#include <map>

template <typename T>
class PageUtil {
private:
    std::vector<T> data;
    int page_size;
    long total_items;
    long total_pages;

    struct PageInfo {
        int current_page;
        int per_page;
        long total_pages;
        long total_items;
        bool has_previous;
        bool has_next;
        std::vector<T> data;
    };

    struct SearchInfo {
        std::string keyword;
        long total_results;
        long total_pages;
        std::vector<T> results;
    };

public:
    PageUtil(const std::vector<T>& data, int page_size) 
        : data(data), page_size(page_size) {
        total_items = data.size();
        total_pages = (total_items + page_size - 1) / page_size;
    }

    std::vector<T> get_page(int page_number) {
        if (page_number < 1 || page_number > total_pages) {
            return std::vector<T>();
        }
        int start_index = (page_number - 1) * page_size;
        int end_index = start_index + page_size;
        return std::vector<T>(data.begin() + start_index, data.begin() + end_index);
    }

    PageInfo get_page_info(int page_number) {
        if (page_number < 1 || page_number > total_pages) {
            return PageInfo{0, 0, 0, 0, false, false, {}};
        }
        int start_index = (page_number - 1) * page_size;
        int end_index = start_index + page_size;
        if (end_index > total_items) {
            end_index = total_items;
        }
        std::vector<T> page_data(data.begin() + start_index, data.begin() + end_index);

        return PageInfo{
            page_number,
            page_size,
            total_pages,
            total_items,
            page_number > 1,
            page_number < total_pages,
            page_data
        };
    }

    SearchInfo search(const std::string& keyword) {
        std::vector<T> results;
        for (const T& item : data) {
            std::stringstream ss;
            ss << item;
            if (ss.str().find(keyword) != std::string::npos) {
                results.push_back(item);
            }
        }
        long num_results = results.size();
        long num_pages = (num_results + page_size - 1) / page_size;

        return SearchInfo{
            keyword,
            num_results,
            num_pages,
            results
        };
    }
};
```

### Explanation
1. **Template Usage**: The class is templated to handle any data type, ensuring flexibility.
2. **Member Variables**: The data, page size, total items, and total pages are stored as private members.
3. **Ceiling Division**: The total pages are calculated using `(total_items + page_size - 1) / page_size` to ensure correct pagination.
4. **Edge Cases**: Invalid page numbers return empty vectors or structs, maintaining consistency with the Python counterpart.
5. **Search Functionality**: Each item is converted to a string and checked for the keyword's presence, ensuring correct filtering.

This approach ensures that the C++ implementation behaves identically to the Python code, providing the same functionality and handling edge cases appropriately.

=== TRANSLATED CODE (cpp) ===
#include <vector>
#include <string>
#include <sstream>
#include <map>

template <typename T>
class PageUtil {
private:
    std::vector<T> data;
    int page_size;
    long total_items;
    long total_pages;

    struct PageInfo {
        int current_page;
        int per_page;
        long total_pages;
        long total_items;
        bool has_previous;
        bool has_next;
        std::vector<T> data;
    };

    struct SearchInfo {
        std::string keyword;
        long total_results;
        long total_pages;
        std::vector<T> results;
    };

public:
    PageUtil(const std::vector<T>& data, int page_size) 
        : data(data), page_size(page_size) {
        total_items = data.size();
        total_pages = (total_items + page_size - 1) / page_size;
    }

    std::vector<T> get_page(int page_number) {
        if (page_number < 1 || page_number > total_pages) {
            return std::vector<T>();
        }
        int start_index = (page_number - 1) * page_size;
        int end_index = start_index + page_size;
        return std::vector<T>(data.begin() + start_index, data.begin() + end_index);
    }

    PageInfo get_page_info(int page_number) {
        if (page_number < 1 || page_number > total_pages) {
            return PageInfo{0, 0, 0, 0, false, false, {}};
        }
        int start_index = (page_number - 1) * page_size;
        int end_index = start_index + page_size;
        if (end_index > total_items) {
            end_index = total_items;
        }
        std::vector<T> page_data(data.begin() + start_index, data.begin() + end_index);

        return PageInfo{
            page_number,
            page_size,
            total_pages,
            total_items,
            page_number > 1,
            page_number < total_pages,
            page_data
        };
    }

    SearchInfo search(const std::string& keyword) {
        std::vector<T> results;
        for (const T& item : data) {
            std::stringstream ss;
            ss << item;
            if (ss.str().find(keyword) != std::string::npos) {
                results.push_back(item);
            }
        }
        long num_results = results.size();
        long num_pages = (num_results + page_size - 1) / page_size;

        return SearchInfo{
            keyword,
            num_results,
            num_pages,
            results
        };
    }
};
