=== SOURCE CODE (py) ===
'''
# PageUtil class is a versatile utility for handling pagination and search functionalities in an efficient and convenient manner.

class PageUtil:
    def __init__(self, data, page_size):
        """
        Initialize the PageUtil object with the given data and page size.
        :param data: list, the data to be paginated
        :param page_size: int, the number of items per page
        """
        self.data = data
        self.page_size = page_size
        self.total_items = len(data)
        self.total_pages = (self.total_items + page_size - 1) // page_size

    def get_page(self, page_number):
        """
        Retrieve a specific page of data.
        :param page_number: int, the page number to fetch
        :return: list, the data on the specified page
        >>> page_util = PageUtil([1, 2, 3, 4], 1)
        >>> page_util.get_page(1)
        [1]

        """


    def get_page_info(self, page_number):
        """
        Retrieve information about a specific page.
        :param page_number: int, the page number to fetch information about
        :return: dict, containing page information such as current page number, total pages, etc.
        >>> page_util = PageUtil([1, 2, 3, 4], 1)
        >>> page_util.get_page_info(1)
        >>> {
        >>>     "current_page": 1,
        >>>     "per_page": 1,
        >>>     "total_pages": 4,
        >>>     "total_items": 4,
        >>>     "has_previous": False,
        >>>     "has_next": True,
        >>>     "data": [1]
        >>> }

        """


    def search(self, keyword):
        """
        Search for items in the data that contain the given keyword.
        :param keyword: str, the keyword to search for
        :return: dict, containing search information such as total results and matching items
        >>> page_util = PageUtil([1, 2, 3, 4], 1)
        >>> page_util.search("1")
        >>> search_info = {
        >>>     "keyword": "1",
        >>>     "total_results": 1,
        >>>     "total_pages": 1,
        >>>     "results": [1]
        >>> }
        """


'''


class PageUtil:
    def __init__(self, data, page_size):
        self.data = data
        self.page_size = page_size
        self.total_items = len(data)
        self.total_pages = (self.total_items + page_size - 1) // page_size

    def get_page(self, page_number):
        if page_number < 1 or page_number > self.total_pages:
            return []

        start_index = (page_number - 1) * self.page_size
        end_index = start_index + self.page_size
        return self.data[start_index:end_index]

    def get_page_info(self, page_number):
        if page_number < 1 or page_number > self.total_pages:
            return {}

        start_index = (page_number - 1) * self.page_size
        end_index = min(start_index + self.page_size, self.total_items)
        page_data = self.data[start_index:end_index]

        page_info = {
            "current_page": page_number,
            "per_page": self.page_size,
            "total_pages": self.total_pages,
            "total_items": self.total_items,
            "has_previous": page_number > 1,
            "has_next": page_number < self.total_pages,
            "data": page_data
        }
        return page_info

    def search(self, keyword):
        results = [item for item in self.data if keyword in str(item)]
        num_results = len(results)
        num_pages = (num_results + self.page_size - 1) // self.page_size

        search_info = {
            "keyword": keyword,
            "total_results": num_results,
            "total_pages": num_pages,
            "results": results
        }
        return search_info




=== REASONING ===
<think>
We need to translate the given Python code to C++. The Python code defines a class `PageUtil` with methods `__init__`, `get_page`, `get_page_info`, and `search`. The docstrings show expected behavior.

We need to keep identical behavior including edge cases: 
- `__init__`: takes data (list) and page_size (int). Computes total_items and total_pages using integer ceiling division.
- `get_page(page_number)`: returns list of items for that page (1-indexed). If page_number out of range, returns empty list. Uses slice.
- `get_page_info(page_number)`: returns a dict with keys: current_page, per_page, total_pages, total_items, has_previous, has_next, data. If page_number out of range, returns empty dict.

</think>

=== RAW ANSWER ===
```
#include <vector>
#include <string>
#include <unordered_map>
#include <any>
#include <stdexcept>

class PageUtil {
private:
    std::vector<std::string> data;
    int page_size;
    int total_items;
    int total_pages;

public:
    PageUtil(const std::vector<std::string>& data, int page_size)
        : data(data), page_size(page_size), total_items(data.size()) {
        total_pages = (total_items + page_size - 1) / page_size;
    }

    std::vector<std::string> get_page(int page_number) const {
        if (page_number < 1 || page_number > total_pages) {
            return {};
        }
        int start = (page_number - 1) * page_size;
        int end = start + page_size;
        if (end > total_items) end = total_items;
        return std::vector<std::string>(data.begin() + start, data.begin() + end);
    }

    std::unordered_map<std::string, std::any> get_page_info(int page_number) const {
        if (page_number < 1 || page_number > total_pages) {
            return {};
        }
        int start = (page_number - 1) * page_size;
        int end = start + page_size;
        if (end > total_items) end = total_items;
        std::vector<std::string> page_data(data.begin() + start, data.begin() + end);

        return {
            {"current_page", page_number},
            {"per_page", page_size},
            {"total_pages", total_pages},
            {"total_items", total_items},
            {"has_previous", page_number > 1},
            {"has_next", page_number < total_pages},
            {"data", page_data}
        };
    }

    std::unordered_map<std::string, std::any> search(const std::string& keyword) const {
        std::vector<std::string> results;
        for (const auto& item : data) {
            if (item.find(keyword) != std::string::npos) {
                results.push_back(item);
            }
        }
        int num_results = results.size();
        int num_pages = (num_results + page_size - 1) / page_size;

        return {
            {"keyword", keyword},
            {"total_results", num_results},
            {"total_pages", num_pages},
            {"results", results}
        };
    }
};
```

=== TRANSLATED CODE (cpp) ===
#include <vector>
#include <string>
#include <unordered_map>
#include <any>
#include <stdexcept>

class PageUtil {
private:
    std::vector<std::string> data;
    int page_size;
    int total_items;
    int total_pages;

public:
    PageUtil(const std::vector<std::string>& data, int page_size)
        : data(data), page_size(page_size), total_items(data.size()) {
        total_pages = (total_items + page_size - 1) / page_size;
    }

    std::vector<std::string> get_page(int page_number) const {
        if (page_number < 1 || page_number > total_pages) {
            return {};
        }
        int start = (page_number - 1) * page_size;
        int end = start + page_size;
        if (end > total_items) end = total_items;
        return std::vector<std::string>(data.begin() + start, data.begin() + end);
    }

    std::unordered_map<std::string, std::any> get_page_info(int page_number) const {
        if (page_number < 1 || page_number > total_pages) {
            return {};
        }
        int start = (page_number - 1) * page_size;
        int end = start + page_size;
        if (end > total_items) end = total_items;
        std::vector<std::string> page_data(data.begin() + start, data.begin() + end);

        return {
            {"current_page", page_number},
            {"per_page", page_size},
            {"total_pages", total_pages},
            {"total_items", total_items},
            {"has_previous", page_number > 1},
            {"has_next", page_number < total_pages},
            {"data", page_data}
        };
    }

    std::unordered_map<std::string, std::any> search(const std::string& keyword) const {
        std::vector<std::string> results;
        for (const auto& item : data) {
            if (item.find(keyword) != std::string::npos) {
                results.push_back(item);
            }
        }
        int num_results = results.size();
        int num_pages = (num_results + page_size - 1) / page_size;

        return {
            {"keyword", keyword},
            {"total_results", num_results},
            {"total_pages", num_pages},
            {"results", results}
        };
    }
};
