=== SOURCE CODE (py) ===
'''
# PageUtil class is a versatile utility for handling pagination and search functionalities in an efficient and convenient manner.

class PageUtil:
    def __init__(self, data, page_size):
        """
        Initialize the PageUtil object with the given data and page size.
        :param data: list, the data to be paginated
        :param page_size: int, the number of items per page
        """
        self.data = data
        self.page_size = page_size
        self.total_items = len(data)
        self.total_pages = (self.total_items + page_size - 1) // page_size

    def get_page(self, page_number):
        """
        Retrieve a specific page of data.
        :param page_number: int, the page number to fetch
        :return: list, the data on the specified page
        >>> page_util = PageUtil([1, 2, 3, 4], 1)
        >>> page_util.get_page(1)
        [1]

        """


    def get_page_info(self, page_number):
        """
        Retrieve information about a specific page.
        :param page_number: int, the page number to fetch information about
        :return: dict, containing page information such as current page number, total pages, etc.
        >>> page_util = PageUtil([1, 2, 3, 4], 1)
        >>> page_util.get_page_info(1)
        >>> {
        >>>     "current_page": 1,
        >>>     "per_page": 1,
        >>>     "total_pages": 4,
        >>>     "total_items": 4,
        >>>     "has_previous": False,
        >>>     "has_next": True,
        >>>     "data": [1]
        >>> }

        """


    def search(self, keyword):
        """
        Search for items in the data that contain the given keyword.
        :param keyword: str, the keyword to search for
        :return: dict, containing search information such as total results and matching items
        >>> page_util = PageUtil([1, 2, 3, 4], 1)
        >>> page_util.search("1")
        >>> search_info = {
        >>>     "keyword": "1",
        >>>     "total_results": 1,
        >>>     "total_pages": 1,
        >>>     "results": [1]
        >>> }
        """


'''


class PageUtil:
    def __init__(self, data, page_size):
        self.data = data
        self.page_size = page_size
        self.total_items = len(data)
        self.total_pages = (self.total_items + page_size - 1) // page_size

    def get_page(self, page_number):
        if page_number < 1 or page_number > self.total_pages:
            return []

        start_index = (page_number - 1) * self.page_size
        end_index = start_index + self.page_size
        return self.data[start_index:end_index]

    def get_page_info(self, page_number):
        if page_number < 1 or page_number > self.total_pages:
            return {}

        start_index = (page_number - 1) * self.page_size
        end_index = min(start_index + self.page_size, self.total_items)
        page_data = self.data[start_index:end_index]

        page_info = {
            "current_page": page_number,
            "per_page": self.page_size,
            "total_pages": self.total_pages,
            "total_items": self.total_items,
            "has_previous": page_number > 1,
            "has_next": page_number < self.total_pages,
            "data": page_data
        }
        return page_info

    def search(self, keyword):
        results = [item for item in self.data if keyword in str(item)]
        num_results = len(results)
        num_pages = (num_results + self.page_size - 1) // self.page_size

        search_info = {
            "keyword": keyword,
            "total_results": num_results,
            "total_pages": num_pages,
            "results": results
        }
        return search_info




=== REASONING ===
<think>
Let me translate the Python code to C++ carefully, keeping behavior identical.

Key observations:
1. `PageUtil` stores a list of items (can be any type based on the Python code - it uses `str(item)` for search, so items could be any type that can be converted to string)
2. `get_page` returns a sublist or empty list
3. `get_page_info` returns a dict or empty dict
4. `search` returns a dict with keyword, total_results, total_pages, results

Since Python uses duck typing and the data can be a list of mixed types (e.g., `[1, 2, 3, 4]`), but in C++ we need to pick a type. Looking at the examples, the data contains integers. The search uses `str(item)` and `keyword in str(item)`, so we need to convert items to strings for searching.

I'll use a template class to allow flexibility, or just use `std::string` as the item type. Actually, looking more carefully, the data is `[1, 2, 3, 4]` (integers), and search converts them to strings. Let me use a template approach or just use `int` since that's what the examples show.

Actually, to keep it general like Python, I'll make it a template class. But the search function needs `str(item)` - I can use `std::to_string` for numeric types or a generic approach.

Let me think about this more carefully. The Python code is generic - it works with any type that supports `str()`. In C++, the closest equivalent would be a template with a constraint or just using `std::string` conversion.

I'll use a template class `template<typename T>` and use `std::to_string` for the search conversion. But `std::to_string` doesn't work for all types. Let me just use `int` as the type since that's what the examples use, or make it a template.

Actually, let me make it a template class. For the search, I'll require that the type is convertible to string via `std::to_string`. This matches the Python behavior where `str(item)` is called.

Wait, but to keep it simple and idiomatic, let me just use `int` as the data type since the examples all use integers. But the Python code is meant to be generic...

Let me go with a template approach. That's the most faithful translation.

For the return types:
- `get_page` returns `std::vector<T>` (empty vector for invalid page)
- `get_page_info` returns some struct or map.
</think>

=== RAW ANSWER ===
```cpp
#include <vector>
#include <string>
#include <map>
#include <any>
#include <algorithm>

template<typename T>
class PageUtil {
public:
    PageUtil(std::vector<T> data, int page_size)
        : data_(std::move(data)), page_size_(page_size),
          total_items_(static_cast<int>(data_.size())),
          total_pages_((total_items_ + page_size_ - 1) / page_size_) {}

    std::vector<T> get_page(int page_number) const {
        if (page_number < 1 || page_number > total_pages_) {
            return {};
        }
        int start_index = (page_number - 1) * page_size_;
        int end_index = start_index + page_size_;
        if (end_index > static_cast<int>(data_.size())) {
            end_index = static_cast<int>(data_.size());
        }
        return std::vector<T>(data_.begin() + start_index, data_.begin() + end_index);
    }

    std::map<std::string, std::any> get_page_info(int page_number) const {
        if (page_number < 1 || page_number > total_pages_) {
            return {};
        }
        int start_index = (page_number - 1) * page_size_;
        int end_index = std::min(start_index + page_size_, static_cast<int>(data_.size()));
        std::vector<T> page_data(data_.begin() + start_index, data_.begin() + end_index);

        std::map<std::string, std::any> page_info;
        page_info["current_page"] = page_number;
        page_info["per_page"] = page_size_;
        page_info["total_pages"] = total_pages_;
        page_info["total_items"] = total_items_;
        page_info["has_previous"] = page_number > 1;
        page_info["has_next"] = page_number < total_pages_;
        page_info["data"] = std::move(page_data);
        return page_info;
    }

    std::map<std::string, std::any> search(const std::string& keyword) const {
        std::vector<T> results;
        for (const auto& item : data_) {
            if (item_to_string(item).find(keyword) != std::string::npos) {
                results.push_back(item);
            }
        }
        int num_results = static_cast<int>(results.size());
        int num_pages = (num_results + page_size_ - 1) / page_size_;

        std::map<std::string, std::any> search_info;
        search_info["keyword"] = keyword;
        search_info["total_results"] = num_results;
        search_info["total_pages"] = num_pages;
        search_info["results"] = std::move(results);
        return search_info;
    }

private:
    std::vector<T> data_;
    int page_size_;
    int total_items_;
    int total_pages_;

    static std::string item_to_string(const T& item) {
        if constexpr (std::is_same_v<T, std::string>) {
            return item;
        } else if constexpr (std::is_arithmetic_v<T>) {
            return std::to_string(item);
        } else {
            std::ostringstream oss;
            oss << item;
            return oss.str();
        }
    }
};
```

=== TRANSLATED CODE (cpp) ===
#include <vector>
#include <string>
#include <map>
#include <any>
#include <algorithm>

template<typename T>
class PageUtil {
public:
    PageUtil(std::vector<T> data, int page_size)
        : data_(std::move(data)), page_size_(page_size),
          total_items_(static_cast<int>(data_.size())),
          total_pages_((total_items_ + page_size_ - 1) / page_size_) {}

    std::vector<T> get_page(int page_number) const {
        if (page_number < 1 || page_number > total_pages_) {
            return {};
        }
        int start_index = (page_number - 1) * page_size_;
        int end_index = start_index + page_size_;
        if (end_index > static_cast<int>(data_.size())) {
            end_index = static_cast<int>(data_.size());
        }
        return std::vector<T>(data_.begin() + start_index, data_.begin() + end_index);
    }

    std::map<std::string, std::any> get_page_info(int page_number) const {
        if (page_number < 1 || page_number > total_pages_) {
            return {};
        }
        int start_index = (page_number - 1) * page_size_;
        int end_index = std::min(start_index + page_size_, static_cast<int>(data_.size()));
        std::vector<T> page_data(data_.begin() + start_index, data_.begin() + end_index);

        std::map<std::string, std::any> page_info;
        page_info["current_page"] = page_number;
        page_info["per_page"] = page_size_;
        page_info["total_pages"] = total_pages_;
        page_info["total_items"] = total_items_;
        page_info["has_previous"] = page_number > 1;
        page_info["has_next"] = page_number < total_pages_;
        page_info["data"] = std::move(page_data);
        return page_info;
    }

    std::map<std::string, std::any> search(const std::string& keyword) const {
        std::vector<T> results;
        for (const auto& item : data_) {
            if (item_to_string(item).find(keyword) != std::string::npos) {
                results.push_back(item);
            }
        }
        int num_results = static_cast<int>(results.size());
        int num_pages = (num_results + page_size_ - 1) / page_size_;

        std::map<std::string, std::any> search_info;
        search_info["keyword"] = keyword;
        search_info["total_results"] = num_results;
        search_info["total_pages"] = num_pages;
        search_info["results"] = std::move(results);
        return search_info;
    }

private:
    std::vector<T> data_;
    int page_size_;
    int total_items_;
    int total_pages_;

    static std::string item_to_string(const T& item) {
        if constexpr (std::is_same_v<T, std::string>) {
            return item;
        } else if constexpr (std::is_arithmetic_v<T>) {
            return std::to_string(item);
        } else {
            std::ostringstream oss;
            oss << item;
            return oss.str();
        }
    }
};
