=== PROMPT VARIANT ===
r1

=== SOURCE CODE (py) ===
'''
# PageUtil class is a versatile utility for handling pagination and search functionalities in an efficient and convenient manner.

class PageUtil:
    def __init__(self, data, page_size):
        """
        Initialize the PageUtil object with the given data and page size.
        :param data: list, the data to be paginated
        :param page_size: int, the number of items per page
        """
        self.data = data
        self.page_size = page_size
        self.total_items = len(data)
        self.total_pages = (self.total_items + page_size - 1) // page_size

    def get_page(self, page_number):
        """
        Retrieve a specific page of data.
        :param page_number: int, the page number to fetch
        :return: list, the data on the specified page
        >>> page_util = PageUtil([1, 2, 3, 4], 1)
        >>> page_util.get_page(1)
        [1]

        """


    def get_page_info(self, page_number):
        """
        Retrieve information about a specific page.
        :param page_number: int, the page number to fetch information about
        :return: dict, containing page information such as current page number, total pages, etc.
        >>> page_util = PageUtil([1, 2, 3, 4], 1)
        >>> page_util.get_page_info(1)
        >>> {
        >>>     "current_page": 1,
        >>>     "per_page": 1,
        >>>     "total_pages": 4,
        >>>     "total_items": 4,
        >>>     "has_previous": False,
        >>>     "has_next": True,
        >>>     "data": [1]
        >>> }

        """


    def search(self, keyword):
        """
        Search for items in the data that contain the given keyword.
        :param keyword: str, the keyword to search for
        :return: dict, containing search information such as total results and matching items
        >>> page_util = PageUtil([1, 2, 3, 4], 1)
        >>> page_util.search("1")
        >>> search_info = {
        >>>     "keyword": "1",
        >>>     "total_results": 1,
        >>>     "total_pages": 1,
        >>>     "results": [1]
        >>> }
        """


'''


class PageUtil:
    def __init__(self, data, page_size):
        self.data = data
        self.page_size = page_size
        self.total_items = len(data)
        self.total_pages = (self.total_items + page_size - 1) // page_size

    def get_page(self, page_number):
        if page_number < 1 or page_number > self.total_pages:
            return []

        start_index = (page_number - 1) * self.page_size
        end_index = start_index + self.page_size
        return self.data[start_index:end_index]

    def get_page_info(self, page_number):
        if page_number < 1 or page_number > self.total_pages:
            return {}

        start_index = (page_number - 1) * self.page_size
        end_index = min(start_index + self.page_size, self.total_items)
        page_data = self.data[start_index:end_index]

        page_info = {
            "current_page": page_number,
            "per_page": self.page_size,
            "total_pages": self.total_pages,
            "total_items": self.total_items,
            "has_previous": page_number > 1,
            "has_next": page_number < self.total_pages,
            "data": page_data
        }
        return page_info

    def search(self, keyword):
        results = [item for item in self.data if keyword in str(item)]
        num_results = len(results)
        num_pages = (num_results + self.page_size - 1) // self.page_size

        search_info = {
            "keyword": keyword,
            "total_results": num_results,
            "total_pages": num_pages,
            "results": results
        }
        return search_info




=== PROMPT ===
You are an expert programmer. Translate the following py code to cpp.
- Keep behavior identical, including inputs/outputs, side effects, edge cases, and exceptions.
- Use idiomatic cpp only when it does not change behavior.

```py
'''
# PageUtil class is a versatile utility for handling pagination and search functionalities in an efficient and convenient manner.

class PageUtil:
    def __init__(self, data, page_size):
        """
        Initialize the PageUtil object with the given data and page size.
        :param data: list, the data to be paginated
        :param page_size: int, the number of items per page
        """
        self.data = data
        self.page_size = page_size
        self.total_items = len(data)
        self.total_pages = (self.total_items + page_size - 1) // page_size

    def get_page(self, page_number):
        """
        Retrieve a specific page of data.
        :param page_number: int, the page number to fetch
        :return: list, the data on the specified page
        >>> page_util = PageUtil([1, 2, 3, 4], 1)
        >>> page_util.get_page(1)
        [1]

        """


    def get_page_info(self, page_number):
        """
        Retrieve information about a specific page.
        :param page_number: int, the page number to fetch information about
        :return: dict, containing page information such as current page number, total pages, etc.
        >>> page_util = PageUtil([1, 2, 3, 4], 1)
        >>> page_util.get_page_info(1)
        >>> {
        >>>     "current_page": 1,
        >>>     "per_page": 1,
        >>>     "total_pages": 4,
        >>>     "total_items": 4,
        >>>     "has_previous": False,
        >>>     "has_next": True,
        >>>     "data": [1]
        >>> }

        """


    def search(self, keyword):
        """
        Search for items in the data that contain the given keyword.
        :param keyword: str, the keyword to search for
        :return: dict, containing search information such as total results and matching items
        >>> page_util = PageUtil([1, 2, 3, 4], 1)
        >>> page_util.search("1")
        >>> search_info = {
        >>>     "keyword": "1",
        >>>     "total_results": 1,
        >>>     "total_pages": 1,
        >>>     "results": [1]
        >>> }
        """


'''


class PageUtil:
    def __init__(self, data, page_size):
        self.data = data
        self.page_size = page_size
        self.total_items = len(data)
        self.total_pages = (self.total_items + page_size - 1) // page_size

    def get_page(self, page_number):
        if page_number < 1 or page_number > self.total_pages:
            return []

        start_index = (page_number - 1) * self.page_size
        end_index = start_index + self.page_size
        return self.data[start_index:end_index]

    def get_page_info(self, page_number):
        if page_number < 1 or page_number > self.total_pages:
            return {}

        start_index = (page_number - 1) * self.page_size
        end_index = min(start_index + self.page_size, self.total_items)
        page_data = self.data[start_index:end_index]

        page_info = {
            "current_page": page_number,
            "per_page": self.page_size,
            "total_pages": self.total_pages,
            "total_items": self.total_items,
            "has_previous": page_number > 1,
            "has_next": page_number < self.total_pages,
            "data": page_data
        }
        return page_info

    def search(self, keyword):
        results = [item for item in self.data if keyword in str(item)]
        num_results = len(results)
        num_pages = (num_results + self.page_size - 1) // self.page_size

        search_info = {
            "keyword": keyword,
            "total_results": num_results,
            "total_pages": num_pages,
            "results": results
        }
        return search_info



```

Use a short stable mapping path that preserves behavior.

Keep the reasoning compact and forward-only:
- Build only a short behavior checklist: interface, control flow, state mutation, key API replacements, and one or two main edge cases.
- Translate in one forward pass from that checklist.
- Do at most one short equivalence scan on the most likely semantic trap.
- If a mismatch appears, patch only the affected local section and recheck once.
- If no concrete mismatch appears, finalize immediately.

Try to avoid:
- repeated high-level redesign during translation;
- rewriting for style when behavior is already preserved;
- reopening the whole program because of a small local issue.

Output only the translated cpp code in a code block.

=== REASONING ===
<think>
We need to translate the given Python code to C++. The Python code defines a PageUtil class with methods: __init__, get_page, get_page_info, search. The data is a list of integers (or any type that can be converted to string for search). The Python code uses lists, slicing, and dicts. In C++, we need to mimic behavior exactly: return vectors, error handling (return empty vector/empty map for invalid page). Search returns a map with string keys and values of various types (int, string, vector<int>). We'll need to use std::vector, std::map, std::string, etc. The Python code uses keyword in str(item) for search, which converts item to string. For C++, we'll need to convert each item to string via std::to_string (assuming data is numeric; if it's generic we can't but the Python example uses ints). The problem statement says "Keep behavior identical, including inputs/outputs, side effects, edge cases, and exceptions." So we'll assume data is vector<int> for simplicity, but could be templated? Python is dynamically typed. For C++ we'll fix to int, but to match behavior we should support any type that can be converted to string? Since the Python code uses str(item), which works for any object that has __str__, but in context of given example it's ints. We'll assume vector<int> to keep it simple and match the docstrings. The user likely expects a straightforward translation.

Edge cases: page_number < 1 or > total_pages returns empty vector / empty map. Search returns map with keyword string, total_results int, total_pages int, results vector. We need to ensure that for empty results, total_pages computed as (0 + page_size - 1) // page_size = (page_size-1)//page_size = 0 (integer division). In Python, (0 + 1 - 1) // 1 = 0 // 1 = 0. In C++, same.

We must include necessary headers: <vector>, <map>, <string>, <sstream>, <algorithm>? Actually for converting to string we can use std::to_string. For search, we need to check if keyword is substring of string representation. Use std::string::find.

Potential trap: In Python, slicing out of bounds is fine; in C++ we need to compute end index min(start+page_size, total_items). Already handled.

Now produce C++ code. We'll define class PageUtil with private members: std::vector<int> data; int page_size; int total_items; int total_pages. Constructor takes vector<int> and int. Methods: get_page(int page_number) returns std::vector<int>; get_page_info returns std::map<std::string, something>; but map can't have mixed types easily. In Python dict can have int, string, list, bool. In C++ we can use std::map<std::string, std::variant<int, std::string, std::vector<int>, bool>> or use a nested map? That's complex. Alternatively, we could return a struct or just mimic the output? But the problem says "Keep behavior identical, including inputs/outputs". The Python get_page_info returns a dict with specific keys. In C++, we could return a std::map<std::string, std::any> or use nlohmann/json? That's overkill. However, the problem likely expects a simple translation for a coding assignment. Since the output is used for display, we can define a struct PageInfo with appropriate fields. But the original Python returns a dict, which is flexible. For C++ idiomatic, we can create a struct PageInfo and return it. That changes the type but behavior (data content) is preserved. The user said "Use idiomatic cpp only when it does not change behavior." If we return a struct, the calling code would need to access fields differently, but the behavior of what data is returned is identical. However, the function signature changes. The Python code is a library; in C++ we must match interfaces exactly? The user wants to "translate" meaning produce equivalent C++ code that does the same thing. Usually, we would use a struct/class for the result. Alternatively, we can use std::map<std::string, std::string> but that loses type info. Another approach: use a std::variant or boost::any. But that's heavy.

Given the simplicity of the task, I think it's acceptable to define a struct PageInfo and SearchInfo with appropriate fields, and return those. The behavior is preserved: the returned object contains the same data. The Python dict is just a container. In C++ we can define a class or struct with getter methods, but that changes the interface. However, we can also return a std::map<std::string, std::any> but that's messy.

Let's assume that for the purpose of this translation, we can define simple structs with fields: for get_page_info: int current_page, int per_page, int total_pages, int total_items, bool has_previous, bool has_next, std::vector<int> data. For search: std::string keyword, int total_results, int total_pages, std::vector<int> results. This matches the data.

Now implement.

We'll also need to handle the case where data is not vector<int>? The Python code works on any list; but we'll fix to int. Since the example uses ints, it's fine.

Edge case: In Python, search returns results list even if empty. That's fine.

Now produce final code.

Let's write it.
</think>

=== RAW ANSWER ===
```cpp
#include <vector>
#include <string>
#include <algorithm>
#include <sstream> // for to_string fallback if needed, but we'll use std::to_string with int

struct PageInfo {
    int current_page;
    int per_page;
    int total_pages;
    int total_items;
    bool has_previous;
    bool has_next;
    std::vector<int> data;
};

struct SearchInfo {
    std::string keyword;
    int total_results;
    int total_pages;
    std::vector<int> results;
};

class PageUtil {
private:
    std::vector<int> data;
    int page_size;
    int total_items;
    int total_pages;

public:
    PageUtil(const std::vector<int>& data, int page_size)
        : data(data), page_size(page_size) {
        total_items = static_cast<int>(data.size());
        total_pages = (total_items + page_size - 1) / page_size;
    }

    std::vector<int> get_page(int page_number) const {
        if (page_number < 1 || page_number > total_pages) {
            return {};
        }
        int start = (page_number - 1) * page_size;
        int end = std::min(start + page_size, total_items);
        return std::vector<int>(data.begin() + start, data.begin() + end);
    }

    PageInfo get_page_info(int page_number) const {
        if (page_number < 1 || page_number > total_pages) {
            return {}; // empty PageInfo
        }
        int start = (page_number - 1) * page_size;
        int end = std::min(start + page_size, total_items);
        std::vector<int> page_data(data.begin() + start, data.begin() + end);

        PageInfo info;
        info.current_page = page_number;
        info.per_page = page_size;
        info.total_pages = total_pages;
        info.total_items = total_items;
        info.has_previous = page_number > 1;
        info.has_next = page_number < total_pages;
        info.data = std::move(page_data);
        return info;
    }

    SearchInfo search(const std::string& keyword) const {
        std::vector<int> results;
        for (int item : data) {
            if (std::to_string(item).find(keyword) != std::string::npos) {
                results.push_back(item);
            }
        }
        int num_results = static_cast<int>(results.size());
        int num_pages = (num_results + page_size - 1) / page_size;

        SearchInfo info;
        info.keyword = keyword;
        info.total_results = num_results;
        info.total_pages = num_pages;
        info.results = std::move(results);
        return info;
    }
};
```

=== TRANSLATED CODE (cpp) ===
#include <vector>
#include <string>
#include <algorithm>
#include <sstream> // for to_string fallback if needed, but we'll use std::to_string with int

struct PageInfo {
    int current_page;
    int per_page;
    int total_pages;
    int total_items;
    bool has_previous;
    bool has_next;
    std::vector<int> data;
};

struct SearchInfo {
    std::string keyword;
    int total_results;
    int total_pages;
    std::vector<int> results;
};

class PageUtil {
private:
    std::vector<int> data;
    int page_size;
    int total_items;
    int total_pages;

public:
    PageUtil(const std::vector<int>& data, int page_size)
        : data(data), page_size(page_size) {
        total_items = static_cast<int>(data.size());
        total_pages = (total_items + page_size - 1) / page_size;
    }

    std::vector<int> get_page(int page_number) const {
        if (page_number < 1 || page_number > total_pages) {
            return {};
        }
        int start = (page_number - 1) * page_size;
        int end = std::min(start + page_size, total_items);
        return std::vector<int>(data.begin() + start, data.begin() + end);
    }

    PageInfo get_page_info(int page_number) const {
        if (page_number < 1 || page_number > total_pages) {
            return {}; // empty PageInfo
        }
        int start = (page_number - 1) * page_size;
        int end = std::min(start + page_size, total_items);
        std::vector<int> page_data(data.begin() + start, data.begin() + end);

        PageInfo info;
        info.current_page = page_number;
        info.per_page = page_size;
        info.total_pages = total_pages;
        info.total_items = total_items;
        info.has_previous = page_number > 1;
        info.has_next = page_number < total_pages;
        info.data = std::move(page_data);
        return info;
    }

    SearchInfo search(const std::string& keyword) const {
        std::vector<int> results;
        for (int item : data) {
            if (std::to_string(item).find(keyword) != std::string::npos) {
                results.push_back(item);
            }
        }
        int num_results = static_cast<int>(results.size());
        int num_pages = (num_results + page_size - 1) / page_size;

        SearchInfo info;
        info.keyword = keyword;
        info.total_results = num_results;
        info.total_pages = num_pages;
        info.results = std::move(results);
        return info;
    }
};
